{"special":
    {"background":"#eeeeee",
     "foreground":"#030303",
     "cursor":"#db2d20"},
"colors":
    {"color0":"#333333",
     "color1":"#f0544c",
     "color2":"#33ff99",
     "color3":"#ffbb33",
     "color4":"#00bfe6",
     "color5":"#ffe5ba",
     "color6":"#959292",
     "color7":"#ff99ff",
     "color8":"#5c5855",
     "color9":"#f0544c",
     "color10":"#33ff99",
     "color11":"#ffbb33",
     "color12":"#00bfe6",
     "color13":"#ffe5ba",
     "color14":"#959292",
     "color15":"#ff99ff"}}
